id;address_1;address_2;city;postcode;country
1;mindshare Interactions Versatile;Frozen Rubber line;Ricardobury;Sports wit;IT
2;Customer Cambridgeshire end-to-end;web-readiness copy;Chadrickshire;purple Cre;FR
3;Table invoice;Berkshire Designer the;Haleyhaven;policy;ES
4;Pizza;interactive;Hintzview;orchid Leo;EN
5;Sausages ubiquitous Avon;Account Assimilated optical;East Gerdaport;USB;EN
6;Neck quantifying object-oriented;azure optical Fresh;Wehnermouth;blue invoi;IT
7;relationships deposit clicks-and-mortar;out-of-the-box payment calculating;O'Konstad;boliviano;FR
8;Identity;Architect;West Braxtonfurt;Account;DE
9;Dynamic Pound;firewall;East Roslyn;Grass-root;DE
10;Computer;open-source Montana;West America;compressin;UK
