{
  "applications": "*",
  "changelogDate": "20220708092457",
  "dto": "no",
  "embedded": false,
  "entityTableName": "customer",
  "fields": [
    {
      "fieldName": "firstName",
      "fieldType": "String"
    },
    {
      "fieldName": "lastName",
      "fieldType": "String"
    },
    {
      "fieldName": "email",
      "fieldType": "String"
    },
    {
      "fieldName": "telephone",
      "fieldType": "String"
    }
  ],
  "fluentMethods": true,
  "jpaMetamodelFiltering": false,
  "name": "Customer",
  "pagination": "pagination",
  "readOnly": false,
  "relationships": [
    {
      "otherEntityName": "address",
      "otherEntityRelationshipName": "customer",
      "ownerSide": true,
      "relationshipName": "address",
      "relationshipType": "one-to-one"
    },
    {
      "otherEntityName": "vehicule",
      "otherEntityRelationshipName": "customer",
      "relationshipName": "vehicule",
      "relationshipType": "one-to-many"
    }
  ],
  "service": "no"
}
