{
  "applications": "*",
  "changelogDate": "20220708092456",
  "dto": "no",
  "embedded": false,
  "entityTableName": "vehicule",
  "fields": [
    {
      "fieldName": "model",
      "fieldType": "String",
      "fieldValidateRules": ["required"]
    },
    {
      "fieldName": "licencePlate",
      "fieldType": "String",
      "fieldValidateRules": ["required"]
    },
    {
      "fieldName": "firstRegistration",
      "fieldType": "LocalDate"
    }
  ],
  "fluentMethods": true,
  "jpaMetamodelFiltering": false,
  "name": "Vehicule",
  "pagination": "infinite-scroll",
  "readOnly": false,
  "relationships": [
    {
      "otherEntityName": "brand",
      "otherEntityRelationshipName": "vehicule",
      "relationshipName": "brand",
      "relationshipType": "many-to-one"
    },
    {
      "otherEntityName": "customer",
      "otherEntityRelationshipName": "vehicule",
      "relationshipName": "customer",
      "relationshipType": "many-to-one"
    }
  ],
  "service": "no"
}
